{
  "size": {
    "type": "number",
    "label": "Размер файла",
    "comment": "Размер файла в байтах",
    "default": 0
  },
  "path": {
    "type": "string",
    "label": "Путь к файлу",
    "comment": "Путь к файлу",
    "default": ""
  },
  "thumbnail": {
    "type": "string",
    "label": "Путь к миниатюре",
    "comment": "Путь к миниатюре",
    "default": ""
  }
}